<?xml version="1.0" encoding="UTF-8" standalone="no"?>
<svg width="16px" height="13px" viewBox="0 0 16 13" version="1.1" xmlns="http://www.w3.org/2000/svg" xmlns:xlink="http://www.w3.org/1999/xlink">
    <!-- Generator: Sketch 42 (36781) - http://www.bohemiancoding.com/sketch -->
    <title>Historia</title>
    <desc>Created with Sketch.</desc>
    <defs></defs>
    <g id="Icons-&amp;-Texts" stroke="none" stroke-width="1" fill="none" fill-rule="evenodd">
        <g id="Icons" transform="translate(-473.000000, -259.000000)" fill-rule="nonzero" fill="#000000">
            <g transform="translate(47.000000, 119.000000)" id="Historia">
                <path d="M429.848297,145.831426 C429.587262,145.831426 429.375139,146.043549 429.375139,146.304584 L429.375139,151.321258 C429.375139,151.582293 429.587262,151.794416 429.848297,151.794416 C430.109331,151.794416 430.321454,151.582293 430.321454,151.321258 L430.321454,146.304584 C430.321454,146.043549 430.109331,145.831426 429.848297,145.831426 Z M438.152227,145.831426 C437.891192,145.831426 437.679069,146.043549 437.679069,146.304584 L437.679069,151.321258 C437.679069,151.582293 437.891192,151.794416 438.152227,151.794416 C438.413261,151.794416 438.625384,151.582293 438.625384,151.321258 L438.625384,146.304584 C438.625384,146.043549 438.413261,145.831426 438.152227,145.831426 Z M436.076244,143.98483 C435.81521,143.98483 435.603086,144.196953 435.603086,144.457987 L435.603086,151.825541 C435.603086,152.086576 435.81521,152.298699 436.076244,152.298699 C436.337278,152.298699 436.549402,152.086576 436.549402,151.825541 L436.549402,144.457726 C436.54914,144.196691 436.337278,143.98483 436.076244,143.98483 Z M431.924279,143.98483 C431.663245,143.98483 431.451121,144.196953 431.451121,144.457987 L431.451121,151.825541 C431.451121,152.086576 431.663245,152.298699 431.924279,152.298699 C432.185314,152.298699 432.397437,152.086576 432.397437,151.825541 L432.397437,144.457726 C432.397437,144.196691 432.185575,143.98483 431.924279,143.98483 Z M434.000262,143.02596 C433.738966,143.02596 433.527365,143.238083 433.527365,143.499117 L433.527365,151.95632 C433.527365,152.217354 433.738966,152.429478 434.000262,152.429478 C434.261558,152.429478 434.473158,152.217354 434.473158,151.95632 L434.473158,143.498856 C434.473158,143.237821 434.261558,143.02596 434.000262,143.02596 Z M439.31485,140 L428.685673,140 C427.204996,140 426,141.204734 426,142.685673 C426,144.165828 427.204734,145.3703 428.685673,145.3703 C430.166089,145.3703 431.370823,144.166089 431.370823,142.685673 C431.370823,142.424639 431.1587,142.212516 430.897666,142.212516 C430.636631,142.212516 430.424508,142.424639 430.424508,142.685673 C430.424508,143.644282 429.644543,144.423985 428.685673,144.423985 C427.72628,144.423985 426.946315,143.644282 426.946315,142.685673 C426.946315,141.72628 427.72628,140.946315 428.685673,140.946315 L439.31485,140.946315 C440.27372,140.946315 441.053685,141.72628 441.053685,142.685673 C441.053685,143.644282 440.27372,144.423985 439.31485,144.423985 C438.356241,144.423985 437.576538,143.644282 437.576538,142.685673 C437.576538,142.424639 437.364415,142.212516 437.103381,142.212516 C436.842346,142.212516 436.630223,142.424639 436.630223,142.685673 C436.630223,144.165828 437.834434,145.3703 439.31485,145.3703 C440.795266,145.3703 442,144.166089 442,142.685673 C442,141.204996 440.795266,140 439.31485,140 Z"></path>
            </g>
        </g>
    </g>
</svg>