<?xml version="1.0" encoding="UTF-8" standalone="no"?>
<svg width="21px" height="18px" viewBox="0 0 21 18" version="1.1" xmlns="http://www.w3.org/2000/svg" xmlns:xlink="http://www.w3.org/1999/xlink">
    <!-- Generator: Sketch 42 (36781) - http://www.bohemiancoding.com/sketch -->
    <title>Shape</title>
    <desc>Created with Sketch.</desc>
    <defs></defs>
    <g id="Icons-&amp;-Texts" stroke="none" stroke-width="1" fill="none" fill-rule="evenodd">
        <g id="Icons" transform="translate(-47.000000, -174.000000)" fill="#4A4A4A">
            <g transform="translate(47.000000, 119.000000)" id="Home">
                <g transform="translate(0.000000, 54.000000)">
                    <path d="M20.4589515,9.26834819 L10.8450592,1.02944664 C10.6965043,0.878821671 10.4147294,0.887347612 10.2776756,1.04649852 L0.720329928,9.26929551 C0.562190935,9.4066579 0.544939408,9.64254229 0.68295162,9.79885122 C0.820963832,9.95516015 1.06056837,9.97221203 1.21774894,9.83674429 L2.74067537,8.52280196 L2.74067537,18.5464673 C2.74067537,18.7539319 2.91031538,18.9216087 3.12020895,18.9216087 L8.08864859,18.9216087 C8.29758374,18.9216087 8.46722375,18.7529845 8.46722375,18.5464673 L8.46722375,13.569212 L12.6804299,13.569212 L12.6804299,18.5464673 C12.6804299,18.7539319 12.8519867,18.9216087 13.0609219,18.9216087 L18.0274447,18.9216087 C18.2392551,18.9216087 18.4069783,18.7529845 18.4069783,18.5464673 L18.4069783,8.51901265 L19.9605741,9.83484964 C20.0324555,9.89642588 20.1215883,9.92579301 20.2097628,9.92579301 C20.3161472,9.92579301 20.4225316,9.88221598 20.4963298,9.79790389 C20.634342,9.64159496 20.6170905,9.40476325 20.4589515,9.26834819 L20.4589515,9.26834819 Z M17.649828,8.01882408 L17.649828,18.1713258 L13.4385386,18.1713258 L13.4385386,13.192176 C13.4385386,12.9856587 13.2698571,12.8160872 13.0609219,12.8160872 L8.08960701,12.8160872 C7.87875502,12.8160872 7.70911501,12.986606 7.70911501,13.192176 L7.70911501,18.1713258 L3.50070095,18.1713258 L3.50070095,8.01882408 C3.50070095,7.97429972 3.48919993,7.93072268 3.47482366,7.89188228 L10.57191,1.78920277 L17.6737884,7.89093496 C17.6584537,7.93072268 17.649828,7.97335239 17.649828,8.01882408 L17.649828,8.01882408 Z" id="Shape"></path>
                </g>
            </g>
        </g>
    </g>
</svg>